acls:
  enable: false
  modify_groups: []
  modify_users: []
  ui_users: []
  view_groups: []
  view_users: []
file_systems: []
master:
  env:
    SPARK_CONF_DIR: /etc/spark3/conf
    SPARK_HOME: /usr/lib/spark3
  files:
    airflow.keytab:
      size: 0
      source: file:///pytest/path/to/airflow.keytab
      timestamp: 0
      type: FILE
      visibility: APPLICATION
  log_level: INFO
  resources:
    fpgas: 0
    gpus: 0
    memory: 4096
    vcores: 1
  script: spark3-submit --driver-cores 2 --conf spark.executorEnv.SPARK_HOME=/usr/lib/spark3
    --conf spark.executorEnv.SPARK_CONF_DIR=/etc/spark3/conf --master yarn --conf
    spark.dynamicAllocation.enabled=true --conf spark.dynamicAllocation.maxExecutors=128
    --conf spark.shuffle.service.enabled=true --conf spark.yarn.maxAppAttempts=1 --conf
    spark.hadoop.fs.permissions.umask-mode=0027 --conf spark.sql.shuffle.partitions=2048
    --conf spark.reducer.maxReqsInFlight=2 --conf spark.shuffle.io.retryWait=120s
    --conf spark.yarn.appMasterEnv.SPARK_CONF_DIR=/etc/spark3/conf --conf spark.yarn.appMasterEnv.SPARK_HOME=/usr/lib/spark3
    --executor-cores 4 --executor-memory 12g --driver-memory 8g --keytab airflow.keytab
    --principal airflow --name subgraph_query_mapping_daily__map_subgraphs_queries__20220703
    --class org.wikidata.query.rdf.spark.transform.queries.subgraphsqueries.SubgraphQueryMappingLauncher
    --queue production --deploy-mode cluster hdfs:///wmf/cache/artifacts/airflow/search/rdf-spark-tools-0.3.146-jar-with-dependencies.jar
    --wikidata-table discovery.wikibase_rdf/date=20220620/wiki=wikidata --top-subgraph-items-table
    discovery.top_subgraph_items/snapshot=20220620/wiki=wikidata --top-subgraph-triples-table
    discovery.top_subgraph_triples/snapshot=20220620/wiki=wikidata --processed-query-table
    discovery.processed_external_sparql_query/year=2022/month=7/day=3/wiki=wikidata
    --subgraph-qitem-match-query-table discovery.subgraph_qitems_match/year=2022/month=7/day=3/wiki=wikidata
    --subgraph-predicate-match-query-table discovery.subgraph_predicates_match/year=2022/month=7/day=3/wiki=wikidata
    --subgraph-uri-match-query-table discovery.subgraph_uri_match/year=2022/month=7/day=3/wiki=wikidata
    --subgraph-query-mapping-table discovery.subgraph_queries/year=2022/month=7/day=3/wiki=wikidata
    --filtering-limit 99
max_attempts: 1
name: Airflow SparkSkeinSubmitHook skein launcher subgraph_query_mapping_daily__map_subgraphs_queries__20220703
node_label: ''
queue: production
services: {}
tags: []
user: ''
