acls:
  enable: false
  modify_groups: []
  modify_users: []
  ui_users: []
  view_groups: []
  view_users: []
file_systems: []
master:
  env:
    PYSPARK_DRIVER_PYTHON: venv/bin/python
    PYSPARK_PYTHON: venv/bin/python
    SPARK_CONF_DIR: /etc/spark3/conf
    SPARK_HOME: /usr/lib/spark3
  files:
    airflow.keytab:
      size: 0
      source: file:///pytest/path/to/airflow.keytab
      timestamp: 0
      type: FILE
      visibility: APPLICATION
    venv:
      size: 0
      source: hdfs:///wmf/cache/artifacts/airflow/search/discolytics-0.26.0.conda.tgz
      timestamp: 0
      type: ARCHIVE
      visibility: APPLICATION
  log_level: INFO
  resources:
    fpgas: 0
    gpus: 0
    memory: 4096
    vcores: 1
  script: spark3-submit --driver-cores 2 --conf spark.executorEnv.PYSPARK_DRIVER_PYTHON=venv/bin/python
    --conf spark.executorEnv.PYSPARK_PYTHON=venv/bin/python --conf spark.executorEnv.SPARK_HOME=/usr/lib/spark3
    --conf spark.executorEnv.SPARK_CONF_DIR=/etc/spark3/conf --master yarn --conf
    spark.dynamicAllocation.enabled=true --conf spark.dynamicAllocation.maxExecutors=50
    --conf spark.shuffle.service.enabled=true --conf spark.yarn.maxAppAttempts=1 --conf
    spark.hadoop.fs.permissions.umask-mode=0027 --conf spark.sql.shuffle.partitions=20
    --conf spark.yarn.appMasterEnv.SPARK_CONF_DIR=/etc/spark3/conf --conf spark.yarn.appMasterEnv.SPARK_HOME=/usr/lib/spark3
    --conf spark.yarn.appMasterEnv.PYSPARK_PYTHON=venv/bin/python --conf spark.yarn.appMasterEnv.PYSPARK_DRIVER_PYTHON=venv/bin/python
    --archives 'hdfs:///wmf/cache/artifacts/airflow/search/discolytics-0.26.0.conda.tgz#venv'
    --executor-cores 1 --executor-memory 4G --driver-memory 4G --keytab airflow.keytab
    --principal airflow --name search_satisfaction_daily__aggregate__20210128 --queue
    production --deploy-mode cluster venv/bin/generate_daily_search_satisfaction.py
    --cirrus-partition event.mediawiki_cirrussearch_request/year=2021/month=1/day=28
    --satisfaction-partition event.SearchSatisfaction/year=2021/month=1/day=28 --output-partition
    discovery.search_satisfaction_daily/year=2021/month=1/day=28
max_attempts: 1
name: Airflow SparkSkeinSubmitHook skein launcher search_satisfaction_daily__aggregate__20210128
node_label: ''
queue: production
services: {}
tags: []
user: ''
