acls:
  enable: false
  modify_groups: []
  modify_users: []
  ui_users: []
  view_groups: []
  view_users: []
file_systems: []
master:
  env:
    SPARK_CONF_DIR: /etc/spark3/conf
    SPARK_HOME: /usr/lib/spark3
  files:
    airflow.keytab:
      size: 0
      source: file:///pytest/path/to/airflow.keytab
      timestamp: 0
      type: FILE
      visibility: APPLICATION
  log_level: INFO
  resources:
    fpgas: 0
    gpus: 0
    memory: 7630
    vcores: 2
  script: spark3-submit --driver-cores 2 --conf spark.executorEnv.SPARK_HOME=/usr/lib/spark3
    --conf spark.executorEnv.SPARK_CONF_DIR=/etc/spark3/conf --master yarn --conf
    spark.dynamicAllocation.maxExecutors=128 --conf spark.yarn.appMasterEnv.SPARK_CONF_DIR=/etc/spark3/conf
    --conf spark.yarn.appMasterEnv.SPARK_HOME=/usr/lib/spark3 --executor-cores 4 --executor-memory
    8G --driver-memory 8G --keytab airflow.keytab --principal airflow --name clickstream_monthly__clickstream_builder__20240601
    --class org.wikimedia.analytics.refinery.job.ClickstreamBuilder --queue production
    --deploy-mode client hdfs:///wmf/cache/artifacts/airflow/analytics/refinery-job-0.2.41-shaded.jar
    --output_base_path /wmf/tmp/analytics/clickstream_monthly_20240501 --wiki_list
    enwiki,ruwiki,dewiki,eswiki,jawiki,frwiki,zhwiki,itwiki,plwiki,ptwiki,fawiki --year
    2024 --month 5 --minimun_link_count 10 --spark_partitions 1024
max_attempts: 1
name: Airflow SparkSkeinSubmitHook skein launcher clickstream_monthly__clickstream_builder__20240601
node_label: ''
queue: production
services: {}
tags: []
user: ''
