acls:
  enable: false
  modify_groups: []
  modify_users: []
  ui_users: []
  view_groups: []
  view_users: []
file_systems: []
master:
  env:
    SPARK_CONF_DIR: /etc/spark3/conf
    SPARK_HOME: /usr/lib/spark3
  files:
    airflow.keytab:
      size: 0
      source: file:///pytest/path/to/airflow.keytab
      timestamp: 0
      type: FILE
      visibility: APPLICATION
  log_level: INFO
  resources:
    fpgas: 0
    gpus: 0
    memory: 7630
    vcores: 2
  script: spark3-submit --driver-cores 2 --conf spark.executorEnv.SPARK_HOME=/usr/lib/spark3
    --conf spark.executorEnv.SPARK_CONF_DIR=/etc/spark3/conf --master yarn --conf
    spark.dynamicAllocation.maxExecutors=32 --conf spark.executor.memoryOverhead=2G
    --conf spark.yarn.maxAppAttempts=2 --conf spark.yarn.appMasterEnv.SPARK_CONF_DIR=/etc/spark3/conf
    --conf spark.yarn.appMasterEnv.SPARK_HOME=/usr/lib/spark3 --executor-cores 4 --executor-memory
    32G --driver-memory 8G --keytab airflow.keytab --principal airflow --name commons_impact_metrics_monthly__compute_pageviews_per_media_file__20240101
    --class org.apache.spark.sql.hive.thriftserver.WMFSparkSQLCLIDriver --queue production
    --deploy-mode client hdfs:///wmf/cache/artifacts/airflow/analytics/wmf-sparksqlclidriver-1.0.0.jar
    -f hdfs://analytics-hadoop/wmf/refinery/current/hql/commons_impact_metrics/commons_pageviews_per_media_file_monthly.hql
    -d category_and_media_with_usage_map_table=tmp.category_and_media_with_usage_map_2023_12
    -d commons_pageviews_per_media_file_monthly_table=wmf_contributors.commons_pageviews_per_media_file_monthly
    -d year_month=2023-12 -d coalesce_partitions=4
max_attempts: 1
name: Airflow SparkSkeinSubmitHook skein launcher commons_impact_metrics_monthly__compute_pageviews_per_media_file__20240101
node_label: ''
queue: production
services: {}
tags: []
user: ''
