acls:
  enable: false
  modify_groups: []
  modify_users: []
  ui_users: []
  view_groups: []
  view_users: []
file_systems: []
master:
  env:
    SPARK_CONF_DIR: /etc/spark3/conf
    SPARK_HOME: /usr/lib/spark3
  files:
    airflow.keytab:
      size: 0
      source: file:///pytest/path/to/airflow.keytab
      timestamp: 0
      type: FILE
      visibility: APPLICATION
  log_level: INFO
  resources:
    fpgas: 0
    gpus: 0
    memory: 22889
    vcores: 2
  script: spark3-submit --driver-cores 2 --conf spark.executorEnv.SPARK_HOME=/usr/lib/spark3
    --conf spark.executorEnv.SPARK_CONF_DIR=/etc/spark3/conf --master yarn --conf
    spark.dynamicAllocation.maxExecutors=90 --conf spark.executor.memoryOverhead=6G
    --conf spark.yarn.appMasterEnv.SPARK_CONF_DIR=/etc/spark3/conf --conf spark.yarn.appMasterEnv.SPARK_HOME=/usr/lib/spark3
    --executor-cores 3 --executor-memory 24G --driver-memory 24G --keytab airflow.keytab
    --principal airflow --name mediawiki_history_reduced__generate_mediawiki_history_reduced__20230601
    --class org.apache.spark.sql.hive.thriftserver.WMFSparkSQLCLIDriver --queue production
    --deploy-mode client hdfs:///wmf/cache/artifacts/airflow/analytics/wmf-sparksqlclidriver-1.0.0.jar
    -f hdfs://analytics-hadoop/wmf/refinery/current/hql/mediawiki/history/compute_mediawiki_history_reduced.hql
    -d destination_table=wmf.mediawiki_history_reduced -d mw_denormalized_history_table=wmf.mediawiki_history
    -d mw_project_namespace_map_table=wmf_raw.mediawiki_project_namespace_map -d coalesce_partitions=4096
    -d shuffle_partitions=4096 -d snapshot=2023-05
max_attempts: 1
name: Airflow SparkSkeinSubmitHook skein launcher mediawiki_history_reduced__generate_mediawiki_history_reduced__20230601
node_label: ''
queue: production
services: {}
tags: []
user: ''
