acls:
  enable: false
  modify_groups: []
  modify_users: []
  ui_users: []
  view_groups: []
  view_users: []
file_systems: []
master:
  env:
    SPARK_CONF_DIR: /etc/spark3/conf
    SPARK_HOME: /usr/lib/spark3
  files:
    airflow.keytab:
      size: 0
      source: file:///pytest/path/to/airflow.keytab
      timestamp: 0
      type: FILE
      visibility: APPLICATION
  log_level: INFO
  resources:
    fpgas: 0
    gpus: 0
    memory: 15259
    vcores: 2
  script: spark3-submit --driver-cores 2 --conf spark.executorEnv.SPARK_HOME=/usr/lib/spark3
    --conf spark.executorEnv.SPARK_CONF_DIR=/etc/spark3/conf --master yarn --conf
    spark.executor.memoryOverhead=4096 --conf spark.dynamicAllocation.maxExecutors=80
    --conf spark.hadoop.fs.permissions.umask-mode=022 --conf spark.yarn.appMasterEnv.SPARK_CONF_DIR=/etc/spark3/conf
    --conf spark.yarn.appMasterEnv.SPARK_HOME=/usr/lib/spark3 --executor-cores 2 --executor-memory
    16G --driver-memory 16G --keytab airflow.keytab --principal airflow --name mediawiki_history_dumps__process_mediawiki_history_dumper__20221001
    --class org.wikimedia.analytics.refinery.job.mediawikihistory.MediawikiHistoryDumper
    --queue production --deploy-mode client hdfs:///wmf/cache/artifacts/airflow/analytics/refinery-job-0.2.24-shaded.jar
    --snapshot 2022-09 --input-base-path hdfs://analytics-hadoop/wmf/data/wmf/mediawiki/history
    --temp-directory hdfs://analytics-hadoop/wmf/tmp/analytics/mediawiki_history_dumps/20221001T000000
    --temp-partitions 4096 --output-base-path hdfs://analytics-hadoop/wmf/data/archive/mediawiki/history
max_attempts: 1
name: Airflow SparkSkeinSubmitHook skein launcher mediawiki_history_dumps__process_mediawiki_history_dumper__20221001
node_label: ''
queue: production
services: {}
tags: []
user: ''
