acls:
  enable: false
  modify_groups: []
  modify_users: []
  ui_users: []
  view_groups: []
  view_users: []
file_systems: []
master:
  env:
    SPARK_CONF_DIR: /etc/spark3/conf
    SPARK_HOME: /usr/lib/spark3
  files:
    airflow.keytab:
      size: 0
      source: file:///pytest/path/to/airflow.keytab
      timestamp: 0
      type: FILE
      visibility: APPLICATION
  log_level: INFO
  resources:
    fpgas: 0
    gpus: 0
    memory: 3815
    vcores: 2
  script: spark3-submit --driver-cores 2 --conf spark.executorEnv.SPARK_HOME=/usr/lib/spark3
    --conf spark.executorEnv.SPARK_CONF_DIR=/etc/spark3/conf --master yarn --conf
    spark.dynamicAllocation.enabled=true --conf spark.dynamicAllocation.maxExecutors=16
    --conf spark.shuffle.service.enabled=true --conf spark.yarn.maxAppAttempts=1 --conf
    spark.yarn.appMasterEnv.SPARK_CONF_DIR=/etc/spark3/conf --conf spark.yarn.appMasterEnv.SPARK_HOME=/usr/lib/spark3
    --executor-cores 2 --executor-memory 4G --driver-memory 4G --keytab airflow.keytab
    --principal airflow --name druid_load_geoeditors_monthly__load_to_druid__20230601
    --class org.wikimedia.analytics.refinery.job.HiveToDruid --queue production --deploy-mode
    client hdfs:///wmf/cache/artifacts/airflow/analytics/refinery-job-0.2.14-shaded.jar
    --database tmp --table tmp_druid_load_geoeditors_monthly_202305 --druid_datasource
    mediawiki_geoeditors_monthly --since 2023-05-01T00 --until 2023-06-01T00 --timestamp_column
    month --timestamp_format yyyy-MM --query_granularity month --segment_granularity
    month --num_shards 1 --map_memory 2048 --reduce_memory 8192 --hadoop_queue production
    --druid_host an-druid1002.eqiad.wmnet --druid_port 8090 --count_metric_name count
    --dimensions wiki_db,country_code,users_are_anonymous,activity_level --metrics
    distinct_editors,namespace_zero_distinct_editors
max_attempts: 1
name: Airflow SparkSkeinSubmitHook skein launcher druid_load_geoeditors_monthly__load_to_druid__20230601
node_label: ''
queue: production
services: {}
tags: []
user: ''
