acls:
  enable: false
  modify_groups: []
  modify_users: []
  ui_users: []
  view_groups: []
  view_users: []
file_systems: []
master:
  env:
    SPARK_CONF_DIR: /etc/spark3/conf
    SPARK_HOME: /usr/lib/spark3
  files:
    airflow.keytab:
      size: 0
      source: file:///pytest/path/to/airflow.keytab
      timestamp: 0
      type: FILE
      visibility: APPLICATION
  log_level: INFO
  resources:
    fpgas: 0
    gpus: 0
    memory: 3815
    vcores: 2
  script: spark3-submit --driver-cores 2 --conf spark.executorEnv.SPARK_HOME=/usr/lib/spark3
    --conf spark.executorEnv.SPARK_CONF_DIR=/etc/spark3/conf --master yarn --conf
    spark.dynamicAllocation.maxExecutors=16 --conf spark.executor.memoryOverhead=2G
    --conf spark.yarn.maxAppAttempts=1 --conf spark.yarn.appMasterEnv.SPARK_CONF_DIR=/etc/spark3/conf
    --conf spark.yarn.appMasterEnv.SPARK_HOME=/usr/lib/spark3 --executor-cores 4 --executor-memory
    16G --driver-memory 4G --keytab airflow.keytab --principal airflow --name commons_impact_metrics_dumps_monthly__commons_category_metrics_snapshot.generate_dumps__20240101
    --class org.apache.spark.sql.hive.thriftserver.WMFSparkSQLCLIDriver --queue production
    --deploy-mode client hdfs:///wmf/cache/artifacts/airflow/analytics/wmf-sparksqlclidriver-1.0.0.jar
    -f hdfs://analytics-hadoop/wmf/refinery/current/hql/commons_impact_metrics/dump_commons_category_metrics_snapshot.hql
    -d source_table=wmf_contributors.commons_category_metrics_snapshot -d destination_directory=/wmf/tmp/analytics/commons_impact_metrics_dumps/2023-12/commons_category_metrics_snapshot
    -d year_month=2023-12
max_attempts: 1
name: Airflow SparkSkeinSubmitHook skein launcher commons_impact_metrics_dumps_monthly__commons_category_metrics_snapshot.generate_dumps__20240101
node_label: ''
queue: production
services: {}
tags: []
user: ''
