acls:
  enable: false
  modify_groups: []
  modify_users: []
  ui_users: []
  view_groups: []
  view_users: []
file_systems: []
master:
  env:
    SPARK_CONF_DIR: /etc/spark3/conf
    SPARK_HOME: /usr/lib/spark3
  files:
    airflow.keytab:
      size: 0
      source: file:///pytest/path/to/airflow.keytab
      timestamp: 0
      type: FILE
      visibility: APPLICATION
  log_level: INFO
  resources:
    fpgas: 0
    gpus: 0
    memory: 3815
    vcores: 2
  script: spark3-submit --driver-cores 2 --conf spark.executorEnv.SPARK_HOME=/usr/lib/spark3
    --conf spark.executorEnv.SPARK_CONF_DIR=/etc/spark3/conf --master yarn --conf
    spark.dynamicAllocation.enabled=true --conf spark.dynamicAllocation.maxExecutors=16
    --conf spark.shuffle.service.enabled=true --conf spark.yarn.maxAppAttempts=1 --conf
    spark.yarn.appMasterEnv.SPARK_CONF_DIR=/etc/spark3/conf --conf spark.yarn.appMasterEnv.SPARK_HOME=/usr/lib/spark3
    --executor-cores 2 --executor-memory 4G --driver-memory 4G --keytab airflow.keytab
    --principal airflow --name cx_daily_report__report_cx_sql__20240117 --class org.apache.spark.sql.hive.thriftserver.WMFSparkSQLCLIDriver
    --queue production --deploy-mode client hdfs:///wmf/cache/artifacts/airflow/analytics_product/wmf-sparksqlclidriver-1.0.0.jar
    -f https://gitlab.wikimedia.org/repos/product-analytics/data-pipelines/-/raw/56b980143a934449d4b77e3c5ed9ba0c8ec45920/content_translation/cx_abuse_filter/cx_abuse_filter_daily.hql
    -d source_table=event.contenttranslationabusefilter -d destination_table=wmf_product.cx_abuse_filter_daily
    -d target_day=16 -d target_month=1 -d target_year=2024 -d coalesce_partitions=1
max_attempts: 1
name: Airflow SparkSkeinSubmitHook skein launcher cx_daily_report__report_cx_sql__20240117
node_label: ''
queue: production
services: {}
tags: []
user: ''
