acls:
  enable: false
  modify_groups: []
  modify_users: []
  ui_users: []
  view_groups: []
  view_users: []
file_systems: []
master:
  env:
    PYSPARK_DRIVER_PYTHON: venv/bin/python
    PYSPARK_PYTHON: venv/bin/python
    SPARK_CONF_DIR: /etc/spark3/conf
    SPARK_HOME: /usr/lib/spark3
  files:
    airflow.keytab:
      size: 0
      source: file:///pytest/path/to/airflow.keytab
      timestamp: 0
      type: FILE
      visibility: APPLICATION
    venv:
      size: 0
      source: hdfs:///wmf/cache/artifacts/airflow/analytics_product/moderation-mariadb-jobs-0.5.0-v0.5.0.conda.tgz
      timestamp: 0
      type: ARCHIVE
      visibility: APPLICATION
  log_level: INFO
  resources:
    fpgas: 0
    gpus: 0
    memory: 3815
    vcores: 2
  script: spark3-submit --driver-cores 2 --conf spark.executorEnv.PYSPARK_DRIVER_PYTHON=venv/bin/python
    --conf spark.executorEnv.PYSPARK_PYTHON=venv/bin/python --conf spark.executorEnv.SPARK_HOME=/usr/lib/spark3
    --conf spark.executorEnv.SPARK_CONF_DIR=/etc/spark3/conf --master yarn --conf
    spark.driver.memory=2G --conf spark.driver.cores=4 --conf spark.jars=hdfs:///wmf/cache/artifacts/airflow/analytics_product/mysql-connector-j-8.2.0.jar
    --conf spark.yarn.appMasterEnv.SPARK_CONF_DIR=/etc/spark3/conf --conf spark.yarn.appMasterEnv.SPARK_HOME=/usr/lib/spark3
    --conf spark.yarn.appMasterEnv.PYSPARK_PYTHON=venv/bin/python --conf spark.yarn.appMasterEnv.PYSPARK_DRIVER_PYTHON=venv/bin/python
    --archives 'hdfs:///wmf/cache/artifacts/airflow/analytics_product/moderation-mariadb-jobs-0.5.0-v0.5.0.conda.tgz#venv'
    --executor-cores 2 --executor-memory 4G --driver-memory 4G --keytab airflow.keytab
    --principal airflow --name patrolled_recentchanges_daily__ptwiki_patrolled_recentchanges__20240913
    --queue production --deploy-mode client venv/bin/patrolled_recentchanges_daily.py
    --wiki_db ptwiki --destination_table wmf_product.moderation_patrolled_recentchanges_daily
    --mariadb_pw_file /user/analytics-product/mysql-analytics-research-client-pw.txt
max_attempts: 1
name: Airflow SparkSkeinSubmitHook skein launcher patrolled_recentchanges_daily__ptwiki_patrolled_recentchanges__20240913
node_label: ''
queue: production
services: {}
tags: []
user: ''
