acls:
  enable: false
  modify_groups: []
  modify_users: []
  ui_users: []
  view_groups: []
  view_users: []
file_systems: []
master:
  env:
    SPARK_CONF_DIR: /etc/spark3/conf
    SPARK_HOME: /usr/lib/spark3
  files:
    airflow.keytab:
      size: 0
      source: file:///pytest/path/to/airflow.keytab
      timestamp: 0
      type: FILE
      visibility: APPLICATION
  log_level: INFO
  resources:
    fpgas: 0
    gpus: 0
    memory: 11445
    vcores: 2
  script: spark3-submit --driver-cores 2 --conf spark.executorEnv.SPARK_HOME=/usr/lib/spark3
    --conf spark.executorEnv.SPARK_CONF_DIR=/etc/spark3/conf --master yarn --conf
    spark.dynamicAllocation.maxExecutors=90 --conf spark.executor.memoryOverhead=2G
    --conf spark.yarn.appMasterEnv.SPARK_CONF_DIR=/etc/spark3/conf --conf spark.yarn.appMasterEnv.SPARK_HOME=/usr/lib/spark3
    --executor-cores 2 --executor-memory 8G --driver-memory 12G --keytab airflow.keytab
    --principal airflow --name vandalism_pageviews_dag__vandalism_pageviews_ja_dag__20240901
    --class org.apache.spark.sql.hive.thriftserver.WMFSparkSQLCLIDriver --queue production
    --deploy-mode client hdfs:///wmf/cache/artifacts/airflow/analytics_product/wmf-sparksqlclidriver-1.0.0.jar
    -f https://gitlab.wikimedia.org/repos/product-analytics/data-pipelines/-/raw/3697ba43768123ef1d331a3cf10e6a7a7160b9bf/moderation/generate_moderation_vandal_pageviews_monthly.hql
    -d wiki_db=jawiki -d destination_table=wmf_product.moderation_vandal_pageviews_monthly
    -d snapshot=2024-08 -d source_history_table=wmf.mediawiki_history -d source_pageviews_table=wmf.pageview_actor
    -d canonical_table=canonical_data.wikis -d coalesce_partitions=64
max_attempts: 1
name: Airflow SparkSkeinSubmitHook skein launcher vandalism_pageviews_dag__vandalism_pageviews_ja_dag__20240901
node_label: ''
queue: production
services: {}
tags: []
user: ''
