acls:
  enable: false
  modify_groups: []
  modify_users: []
  ui_users: []
  view_groups: []
  view_users: []
file_systems: []
master:
  env:
    LD_LIBRARY_PATH: venv/lib
    PYSPARK_DRIVER_PYTHON: venv/bin/python
    PYSPARK_PYTHON: venv/bin/python
    SPARK_CONF_DIR: /etc/spark3/conf
    SPARK_HOME: /usr/lib/spark3
  files:
    airflow.keytab:
      size: 0
      source: file:///pytest/path/to/airflow.keytab
      timestamp: 0
      type: FILE
      visibility: APPLICATION
    venv:
      size: 0
      source: hdfs:///wmf/cache/artifacts/airflow/research/research_datasets.tgz
      timestamp: 0
      type: ARCHIVE
      visibility: APPLICATION
  log_level: INFO
  resources:
    fpgas: 0
    gpus: 0
    memory: 15259
    vcores: 2
  script: 'hdfs dfs -get /tmp/research/mwaddlink/anchor.bloom && ls -l &&  venv/bin/spark-submit
    --driver-cores 2 --conf spark.executorEnv.LD_LIBRARY_PATH=venv/lib --conf spark.executorEnv.PYSPARK_DRIVER_PYTHON=venv/bin/python
    --conf spark.executorEnv.PYSPARK_PYTHON=venv/bin/python --conf spark.executorEnv.SPARK_HOME=/usr/lib/spark3
    --conf spark.executorEnv.SPARK_CONF_DIR=/etc/spark3/conf --master yarn --conf
    spark.dynamicAllocation.maxExecutors=128 --conf spark.driver.maxResultSize=2G
    --conf spark.sql.execution.arrow.pyspark.enabled=True --conf spark.executor.memoryOverhead=2G
    --conf spark.sql.shuffle.partitions=2000 --conf spark.network.timeout=1200s --conf
    spark.shuffle.io.retryWait=1200s --conf spark.yarn.appMasterEnv.SPARK_CONF_DIR=/etc/spark3/conf
    --conf spark.yarn.appMasterEnv.SPARK_HOME=/usr/lib/spark3 --conf spark.yarn.appMasterEnv.PYSPARK_PYTHON=venv/bin/python
    --conf spark.yarn.appMasterEnv.PYSPARK_DRIVER_PYTHON=venv/bin/python --conf spark.yarn.appMasterEnv.LD_LIBRARY_PATH=venv/lib
    --archives ''hdfs:///wmf/cache/artifacts/airflow/research/research_datasets.tgz#venv''
    --executor-cores 4 --executor-memory 16G --driver-memory 16G --keytab airflow.keytab
    --principal airflow --name mwaddlink__generate_training_data__20240502 --queue
    production --deploy-mode client venv/bin/research_datasets_pipelines.py mwaddlink.generatetrainingdata.run
    ''{"directory": "/tmp/research/mwaddlink", "files_per_wiki": 100}'''
max_attempts: 1
name: Airflow SparkSkeinSubmitHook skein launcher mwaddlink__generate_training_data__20240502
node_label: ''
queue: production
services: {}
tags: []
user: ''
