acls:
  enable: false
  modify_groups: []
  modify_users: []
  ui_users: []
  view_groups: []
  view_users: []
file_systems: []
master:
  env:
    SPARK_CONF_DIR: /etc/spark3/conf
    SPARK_HOME: /usr/lib/spark3
  files:
    airflow.keytab:
      size: 0
      source: file:///pytest/path/to/airflow.keytab
      timestamp: 0
      type: FILE
      visibility: APPLICATION
  log_level: INFO
  resources:
    fpgas: 0
    gpus: 0
    memory: 3815
    vcores: 2
  script: "spark3-submit --driver-cores 2 --conf spark.executorEnv.SPARK_HOME=/usr/lib/spark3\
    \ --conf spark.executorEnv.SPARK_CONF_DIR=/etc/spark3/conf --master yarn --conf\
    \ spark.dynamicAllocation.enabled=true --conf spark.dynamicAllocation.maxExecutors=16\
    \ --conf spark.shuffle.service.enabled=true --conf spark.yarn.maxAppAttempts=1\
    \ --conf spark.yarn.appMasterEnv.SPARK_CONF_DIR=/etc/spark3/conf --conf spark.yarn.appMasterEnv.SPARK_HOME=/usr/lib/spark3\
    \ --executor-cores 2 --executor-memory 4G --driver-memory 4G --keytab airflow.keytab\
    \ --principal airflow --name article_topics__create_table_if_not_exists__20240601\
    \ --class org.apache.spark.sql.hive.thriftserver.WMFSparkSQLCLIDriver --queue\
    \ production --deploy-mode client hdfs:///wmf/cache/artifacts/airflow/research/wmf-sparksqlclidriver-1.0.0.jar\
    \ -e '\nCREATE TABLE IF NOT EXISTS None (\n    pid_from         BIGINT       \
    \ COMMENT '\"'\"'id of the page'\"'\"',\n    qid_from         STRING        COMMENT\
    \ '\"'\"'wikidata QID of the page'\"'\"',\n    outlinks         STRING       \
    \ COMMENT '\"'\"'all target links from this page, separated by space'\"'\"',\n\
    \    embedding        ARRAY<FLOAT>  COMMENT '\"'\"'embedding generated by the\
    \ outlink topic model'\"'\"',\n    predicted_labels ARRAY<STRUCT<\n          \
    \  label: STRING,\n            probability: FLOAT\n        >\n    >          \
    \                    COMMENT '\"'\"'predicted topic labels'\"'\"'            \
    \  \n)\nCOMMENT '\"'\"'Article topic labels and embeddings using the outlinks\
    \ model'\"'\"'\nPARTITIONED BY (\n    snapshot STRING COMMENT '\"'\"'mediawiki\
    \ snapshot'\"'\"',\n    wiki_db  STRING COMMENT '\"'\"'the wiki project'\"'\"\
    '\n)\nSTORED AS PARQUET\nLOCATION '\"'\"'/tmp/research/article_topics'\"'\"''"
max_attempts: 1
name: Airflow SparkSkeinSubmitHook skein launcher article_topics__create_table_if_not_exists__20240601
node_label: ''
queue: production
services: {}
tags: []
user: ''
