acls:
  enable: false
  modify_groups: []
  modify_users: []
  ui_users: []
  view_groups: []
  view_users: []
file_systems: []
master:
  env:
    PYSPARK_DRIVER_PYTHON: venv/bin/python
    PYSPARK_PYTHON: venv/bin/python
    SPARK_CONF_DIR: /etc/spark3/conf
    SPARK_HOME: /usr/lib/spark3
  files:
    airflow.keytab:
      size: 0
      source: file:///pytest/path/to/airflow.keytab
      timestamp: 0
      type: FILE
      visibility: APPLICATION
    venv:
      size: 0
      source: hdfs:///wmf/cache/artifacts/airflow/research/research_datasets.tgz
      timestamp: 0
      type: ARCHIVE
      visibility: APPLICATION
  log_level: INFO
  resources:
    fpgas: 0
    gpus: 0
    memory: 7630
    vcores: 2
  script: 'spark3-submit --driver-cores 2 --conf spark.executorEnv.PYSPARK_DRIVER_PYTHON=venv/bin/python
    --conf spark.executorEnv.PYSPARK_PYTHON=venv/bin/python --conf spark.executorEnv.SPARK_HOME=/usr/lib/spark3
    --conf spark.executorEnv.SPARK_CONF_DIR=/etc/spark3/conf --master yarn --conf
    spark.sql.shuffle.partitions=512 --conf spark.hadoop.fs.permissions.umask-mode=022
    --conf spark.jars.ivySettings=/etc/maven/ivysettings.xml --conf ''spark.driver.extraJavaOptions=-Divy.cache.dir=/tmp/pytest_user/ivy_spark3/cache
    -Divy.home=/tmp/pytest_user/ivy_spark3/home'' --conf spark.dynamicAllocation.maxExecutors=98
    --conf spark.executor.memoryOverhead=4G --conf spark.yarn.appMasterEnv.SPARK_CONF_DIR=/etc/spark3/conf
    --conf spark.yarn.appMasterEnv.SPARK_HOME=/usr/lib/spark3 --conf spark.yarn.appMasterEnv.PYSPARK_PYTHON=venv/bin/python
    --conf spark.yarn.appMasterEnv.PYSPARK_DRIVER_PYTHON=venv/bin/python --archives
    ''hdfs:///wmf/cache/artifacts/airflow/research/research_datasets.tgz#venv'' --executor-cores
    4 --executor-memory 12G --driver-memory 8G --keytab airflow.keytab --principal
    airflow --name revert_risk_pipeline__promote_model.compare_models__20240401 --queue
    production --deploy-mode client venv/bin/research_datasets_pipelines.py revertrisk.evaluate.runmodelcomparison
    ''{"candidate_model_dir": "/tmp/research/revert_risk/model", "reference_model_dir":
    "/tmp/research/revert_risk/reference_model", "output": "/tmp/research/revert_risk/decision"}'''
max_attempts: 1
name: Airflow SparkSkeinSubmitHook skein launcher revert_risk_pipeline__promote_model.compare_models__20240401
node_label: ''
queue: production
services: {}
tags: []
user: ''
