acls:
  enable: false
  modify_groups: []
  modify_users: []
  ui_users: []
  view_groups: []
  view_users: []
file_systems: []
master:
  env: {}
  files:
    airflow.keytab:
      size: 0
      source: file:///pytest/path/to/airflow.keytab
      timestamp: 0
      type: FILE
      visibility: APPLICATION
  log_level: INFO
  resources:
    fpgas: 0
    gpus: 0
    memory: 1024
    vcores: 1
  script: kinit -k -t airflow.keytab airflow && hdfs dfs -rm -r /user/analytics-platform-eng/structured-data/section_topics/dumps/20241020
max_attempts: 1
name: detect_html_tables__cleanup_dumps_from_hdfs__20241022
node_label: ''
queue: production
services: {}
tags: []
user: ''
