acls:
  enable: false
  modify_groups: []
  modify_users: []
  ui_users: []
  view_groups: []
  view_users: []
file_systems: []
master:
  env: {}
  files:
    airflow.keytab:
      size: 0
      source: file:///pytest/path/to/airflow.keytab
      timestamp: 0
      type: FILE
      visibility: APPLICATION
    swift_auth.env:
      size: 0
      source: hdfs://analytics-hadoop/user/analytics/swift_auth_analytics_admin.env
      timestamp: 0
      type: FILE
      visibility: APPLICATION
    swift_upload.py:
      size: 0
      source: hdfs://analytics-hadoop/wmf/refinery/current/oozie/util/swift/upload/swift_upload.py
      timestamp: 0
      type: FILE
      visibility: APPLICATION
  log_level: INFO
  resources:
    fpgas: 0
    gpus: 0
    memory: 1024
    vcores: 1
  script: kinit -k -t airflow.keytab airflow && python3 swift_upload.py --swift-overwrite
    true --swift-delete-after 604800 --swift-auto-version false --swift-object-prefix
    '20200516' --event-per-object false --event-stream swift.search_glent.upload-complete
    --event-service-url https://eventgate-analytics.svc.eqiad.wmnet:4592/v1/events
    swift_auth.env search_glent 'hdfs://analytics-hadoop/tmp/glent_weekly_2020-05-09/esbulk'
max_attempts: 1
name: glent_weekly__swift_upload__20200509
node_label: ''
queue: production
services: {}
tags: []
user: ''
