acls:
  enable: false
  modify_groups: []
  modify_users: []
  ui_users: []
  view_groups: []
  view_users: []
file_systems: []
master:
  env: {}
  files:
    airflow.keytab:
      size: 0
      source: file:///pytest/path/to/airflow.keytab
      timestamp: 0
      type: FILE
      visibility: APPLICATION
  log_level: INFO
  resources:
    fpgas: 0
    gpus: 0
    memory: 1024
    vcores: 1
  script: kinit -k -t airflow.keytab airflow && hdfs dfs -rm -r hdfs://analytics-hadoop/wmf/tmp/analytics/reports/browser/all_sites_by_os_family_percent_2024-04-21
max_attempts: 1
name: browser_metrics_weekly__remove_unpivoted_directory_for_all_sites_by_os_family_percent__20240421
node_label: ''
queue: production
services: {}
tags: []
user: ''
