acls:
  enable: false
  modify_groups: []
  modify_users: []
  ui_users: []
  view_groups: []
  view_users: []
file_systems: []
master:
  env: {}
  files:
    airflow.keytab:
      size: 0
      source: file:///pytest/path/to/airflow.keytab
      timestamp: 0
      type: FILE
      visibility: APPLICATION
    convert_fsimage_to_xml_on_hdfs.sh:
      size: 0
      source: hdfs://analytics-hadoop/wmf/refinery/current/bin/convert_fsimage_to_xml_on_hdfs.sh
      timestamp: 0
      type: FILE
      visibility: APPLICATION
  log_level: INFO
  resources:
    fpgas: 0
    gpus: 0
    memory: 2048
    vcores: 1
  script: kinit -k -t airflow.keytab airflow && ./convert_fsimage_to_xml_on_hdfs.sh
    /wmf/data/raw/hdfs/fsimage/fsimage_2022-12-19.gz /wmf/data/raw/hdfs/xml_fsimage/fsimage_2022-12-19.xml
max_attempts: 1
name: convert_fsimage_to_xml_on_hdfs
node_label: ''
queue: production
services: {}
tags: []
user: ''
