acls:
  enable: false
  modify_groups: []
  modify_users: []
  ui_users: []
  view_groups: []
  view_users: []
file_systems: []
master:
  env:
    LD_LIBRARY_PATH: venv/lib
  files:
    airflow.keytab:
      size: 0
      source: file:///pytest/path/to/airflow.keytab
      timestamp: 0
      type: FILE
      visibility: APPLICATION
    venv:
      size: 0
      source: hdfs:///wmf/cache/artifacts/airflow/research/research_datasets.tgz
      timestamp: 0
      type: ARCHIVE
      visibility: APPLICATION
  log_level: INFO
  resources:
    fpgas: 0
    gpus: 0
    memory: 24576
    vcores: 8
  script: 'kinit -k -t airflow.keytab airflow && source venv/bin/activate && python3
    -m research_datasets mwaddlink.generateaddlinkmodel.run ''{"wiki_dbs": ["frwiki",
    "jawiki", "ruwiki"], "model_id": "model_3", "directory": "/tmp/research/mwaddlink",
    "grid_search": false}'''
max_attempts: 1
name: mwaddlink__model_model_3__20240502
node_label: ''
queue: production
services: {}
tags: []
user: ''
