acls:
  enable: false
  modify_groups: []
  modify_users: []
  ui_users: []
  view_groups: []
  view_users: []
file_systems: []
master:
  env:
    PYSPARK_PYTHON: venv/bin/python
    SPARK_CONF_DIR: /etc/spark3/conf
    SPARK_HOME: /usr/lib/spark3
  files:
    airflow.keytab:
      size: 0
      source: file:///pytest/path/to/airflow.keytab
      timestamp: 0
      type: FILE
      visibility: APPLICATION
    venv:
      size: 0
      source: hdfs:///wmf/cache/artifacts/airflow/platform_eng/differential-privacy-0.1.0.conda.tgz
      timestamp: 0
      type: ARCHIVE
      visibility: APPLICATION
  log_level: INFO
  resources:
    fpgas: 0
    gpus: 0
    memory: 4096
    vcores: 1
  script: venv/bin/spark-submit --driver-cores 2 --conf spark.executorEnv.PYSPARK_PYTHON=venv/bin/python
    --conf spark.executorEnv.SPARK_HOME=/usr/lib/spark3 --conf spark.executorEnv.SPARK_CONF_DIR=/etc/spark3/conf
    --master yarn --conf spark.dynamicAllocation.enabled=true --conf spark.dynamicAllocation.maxExecutors=80
    --conf spark.shuffle.service.enabled=true --conf spark.yarn.maxAppAttempts=1 --conf
    spark.driver.maxResultSize=2G --conf spark.driver.memoryOverhead=2G --conf spark.executor.memoryOverhead=2G
    --conf spark.sql.autoBroadcastJoinThreshold=-1 --conf spark.sql.broadcastTimeout=600
    --conf spark.sql.sources.partitionOverwriteMode=dynamic --conf spark.sql.shuffle.partitions=320
    --conf spark.sql.warehouse.dir=/tmp --conf spark.hadoop.hive.exec.dynamic.partition=True
    --conf spark.hadoop.hive.exec.dynamic.partition.mode=nonstrict --conf spark.yarn.appMasterEnv.SPARK_CONF_DIR=/etc/spark3/conf
    --conf spark.yarn.appMasterEnv.SPARK_HOME=/usr/lib/spark3 --conf spark.yarn.appMasterEnv.PYSPARK_PYTHON=venv/bin/python
    --archives 'hdfs:///wmf/cache/artifacts/airflow/platform_eng/differential-privacy-0.1.0.conda.tgz#venv'
    --executor-cores 4 --executor-memory 8G --driver-memory 10G --keytab airflow.keytab
    --principal airflow --name country_project_page_daily_dag__do_dp_pageview_actor__20230220
    --queue production --deploy-mode cluster venv/lib/python3.10/site-packages/differential_privacy/country_project_page_gaussian.py
    2023 2 19
max_attempts: 1
name: Airflow SparkSkeinSubmitHook skein launcher country_project_page_daily_dag__do_dp_pageview_actor__20230220
node_label: ''
queue: production
services: {}
tags: []
user: ''
