acls:
  enable: false
  modify_groups: []
  modify_users: []
  ui_users: []
  view_groups: []
  view_users: []
file_systems: []
master:
  env:
    PYSPARK_DRIVER_PYTHON: venv/bin/python
    PYSPARK_PYTHON: venv/bin/python
    SPARK_CONF_DIR: /etc/spark3/conf
    SPARK_HOME: /usr/lib/spark3
  files:
    airflow.keytab:
      size: 0
      source: file:///pytest/path/to/airflow.keytab
      timestamp: 0
      type: FILE
      visibility: APPLICATION
    venv:
      size: 0
      source: hdfs:///wmf/cache/artifacts/airflow/platform_eng/imagerec-0.11.0-v0.11.0.conda.tgz
      timestamp: 0
      type: ARCHIVE
      visibility: APPLICATION
  log_level: INFO
  resources:
    fpgas: 0
    gpus: 0
    memory: 15259
    vcores: 2
  script: spark3-submit --driver-cores 2 --conf spark.executorEnv.PYSPARK_DRIVER_PYTHON=venv/bin/python
    --conf spark.executorEnv.PYSPARK_PYTHON=venv/bin/python --conf spark.executorEnv.SPARK_HOME=/usr/lib/spark3
    --conf spark.executorEnv.SPARK_CONF_DIR=/etc/spark3/conf --master yarn --conf
    spark.dynamicAllocation.maxExecutors=128 --conf spark.sql.shuffle.partitions=1024
    --conf spark.yarn.appMasterEnv.SPARK_CONF_DIR=/etc/spark3/conf --conf spark.yarn.appMasterEnv.SPARK_HOME=/usr/lib/spark3
    --conf spark.yarn.appMasterEnv.PYSPARK_PYTHON=venv/bin/python --conf spark.yarn.appMasterEnv.PYSPARK_DRIVER_PYTHON=venv/bin/python
    --archives 'hdfs:///wmf/cache/artifacts/airflow/platform_eng/imagerec-0.11.0-v0.11.0.conda.tgz#venv'
    --executor-cores 4 --executor-memory 8G --driver-memory 16G --keytab airflow.keytab
    --principal airflow --name section_alignment_image_suggestions__generate_suggestions__20230116
    --queue production --deploy-mode client venv/bin/imagerec_recommendation.py --output
    /user/analytics-platform-eng/structured-data/section-alignment-suggestions/suggestions/2023-01-09
    --section-images /user/analytics-platform-eng/structured-data/section-alignment-suggestions/article_images/2023-01-09
    --section-alignments /user/analytics-platform-eng/structured-data/seal/alignments/2023-01-09
    --max-target-images 0 --table-filter /user/analytics-platform-eng/structured-data/section_topics/target_wikis_tables/20230101
max_attempts: 1
name: Airflow SparkSkeinSubmitHook skein launcher section_alignment_image_suggestions__generate_suggestions__20230116
node_label: ''
queue: production
services: {}
tags: []
user: ''
